adder/signadder/tb_signadder.vcd
$date
	Sun Sep 22 12:41:12 2024
$end
$version
	Icarus Verilog
$end
$timescale
	1ps
$end
$scope module tb_signadder $end
$var wire 8 ! outb [7:0] $end
$var wire 8 " outa [7:0] $end
$var parameter 32 # CLK_PERIOD $end
$var reg 1 $ clk $end
$var reg 8 % ina [7:0] $end
$var reg 8 & inb [7:0] $end
$var integer 32 ' i [31:0] $end
$var integer 32 ( seed1 [31:0] $end
$var integer 32 ) seed2 [31:0] $end
$scope module sa $end
$var wire 8 * A [7:0] $end
$var wire 8 + Aoutbuf [7:0] $end
$var wire 8 , B [7:0] $end
$var wire 8 - Boutbuf [7:0] $end
$var wire 1 . Carry $end
$var wire 1 / Carryoutbuf $end
$var wire 8 0 Sum [7:0] $end
$var wire 8 1 Sumbuf [7:0] $end
$var wire 1 $ clk1 $end
$var parameter 32 2 bitNUmber $end
$var reg 8 3 Ainbuf [7:0] $end
$var reg 8 4 Binbuf [7:0] $end
$var reg 1 5 newdata $end
$scope module cc $end
$var wire 8 6 A [7:0] $end
$var wire 8 7 Aout [7:0] $end
$var wire 8 8 B [7:0] $end
$var wire 8 9 Bout [7:0] $end
$var wire 1 $ clk1 $end
$var parameter 32 : bitNumber $end
$var reg 8 ; Ainbuf [7:0] $end
$var reg 8 < Aoutbuf [7:0] $end
$var reg 8 = Binbuf [7:0] $end
$var reg 8 > Boutbuf [7:0] $end
$var reg 8 ? Cinbuf [7:0] $end
$var reg 1 @ newdata $end
$var integer 32 A i [31:0] $end
$upscope $end
$scope module fa $end
$var wire 1 B Carryin $end
$var wire 1 / Carryout $end
$var wire 8 C Sum [7:0] $end
$var wire 8 D X [7:0] $end
$var wire 8 E Y [7:0] $end
$var wire 1 $ clk1 $end
$var wire 8 F Sumreg [7:0] $end
$var wire 9 G Carryoutreg [8:0] $end
$var parameter 32 H chainNumber $end
$var reg 9 I Carryinreg [8:0] $end
$var reg 1 J Carryoutbuf $end
$var reg 8 K Sumbuf [7:0] $end
$var reg 8 L Xreg [7:0] $end
$var reg 8 M Yreg [7:0] $end
$var reg 1 N newdata $end
$var integer 32 O j [31:0] $end
$scope begin label[0] $end
$var parameter 2 P i $end
$scope module fx $end
$var wire 1 Q Cin $end
$var wire 1 R X $end
$var wire 1 S Y $end
$var wire 1 $ clk1 $end
$var wire 1 T Sum $end
$var wire 1 U C $end
$var reg 1 V Cinreg $end
$var reg 1 W Xreg $end
$var reg 1 X Yreg $end
$var reg 2 Y buff [1:0] $end
$upscope $end
$upscope $end
$scope begin label[1] $end
$var parameter 2 Z i $end
$scope module fx $end
$var wire 1 [ Cin $end
$var wire 1 \ X $end
$var wire 1 ] Y $end
$var wire 1 $ clk1 $end
$var wire 1 ^ Sum $end
$var wire 1 _ C $end
$var reg 1 ` Cinreg $end
$var reg 1 a Xreg $end
$var reg 1 b Yreg $end
$var reg 2 c buff [1:0] $end
$upscope $end
$upscope $end
$scope begin label[2] $end
$var parameter 3 d i $end
$scope module fx $end
$var wire 1 e Cin $end
$var wire 1 f X $end
$var wire 1 g Y $end
$var wire 1 $ clk1 $end
$var wire 1 h Sum $end
$var wire 1 i C $end
$var reg 1 j Cinreg $end
$var reg 1 k Xreg $end
$var reg 1 l Yreg $end
$var reg 2 m buff [1:0] $end
$upscope $end
$upscope $end
$scope begin label[3] $end
$var parameter 3 n i $end
$scope module fx $end
$var wire 1 o Cin $end
$var wire 1 p X $end
$var wire 1 q Y $end
$var wire 1 $ clk1 $end
$var wire 1 r Sum $end
$var wire 1 s C $end
$var reg 1 t Cinreg $end
$var reg 1 u Xreg $end
$var reg 1 v Yreg $end
$var reg 2 w buff [1:0] $end
$upscope $end
$upscope $end
$scope begin label[4] $end
$var parameter 4 x i $end
$scope module fx $end
$var wire 1 y Cin $end
$var wire 1 z X $end
$var wire 1 { Y $end
$var wire 1 $ clk1 $end
$var wire 1 | Sum $end
$var wire 1 } C $end
$var reg 1 ~ Cinreg $end
$var reg 1 !" Xreg $end
$var reg 1 "" Yreg $end
$var reg 2 #" buff [1:0] $end
$upscope $end
$upscope $end
$scope begin label[5] $end
$var parameter 4 $" i $end
$scope module fx $end
$var wire 1 %" Cin $end
$var wire 1 &" X $end
$var wire 1 '" Y $end
$var wire 1 $ clk1 $end
$var wire 1 (" Sum $end
$var wire 1 )" C $end
$var reg 1 *" Cinreg $end
$var reg 1 +" Xreg $end
$var reg 1 ," Yreg $end
$var reg 2 -" buff [1:0] $end
$upscope $end
$upscope $end
$scope begin label[6] $end
$var parameter 4 ." i $end
$scope module fx $end
$var wire 1 /" Cin $end
$var wire 1 0" X $end
$var wire 1 1" Y $end
$var wire 1 $ clk1 $end
$var wire 1 2" Sum $end
$var wire 1 3" C $end
$var reg 1 4" Cinreg $end
$var reg 1 5" Xreg $end
$var reg 1 6" Yreg $end
$var reg 2 7" buff [1:0] $end
$upscope $end
$upscope $end
$scope begin label[7] $end
$var parameter 4 8" i $end
$scope module fx $end
$var wire 1 9" Cin $end
$var wire 1 :" X $end
$var wire 1 ;" Y $end
$var wire 1 $ clk1 $end
$var wire 1 <" Sum $end
$var wire 1 =" C $end
$var reg 1 >" Cinreg $end
$var reg 1 ?" Xreg $end
$var reg 1 @" Yreg $end
$var reg 2 A" buff [1:0] $end
$upscope $end
$upscope $end
$upscope $end
$upscope $end
$upscope $end
$enddefinitions $end
$comment Show the parameter values. $end
$dumpall
b111 8"
b110 ."
b101 $"
b100 x
b11 n
b10 d
b1 Z
b0 P
b1000 H
b1000 :
b1000 2
b1010 #
$end
#0
$dumpvars
b0 A"
0@"
0?"
0>"
0="
0<"
0;"
0:"
09"
b0 7"
06"
05"
04"
03"
02"
01"
00"
0/"
b0 -"
0,"
0+"
0*"
0)"
0("
0'"
0&"
0%"
b0 #"
0""
0!"
0~
0}
0|
0{
0z
0y
b0 w
0v
0u
0t
0s
0r
0q
0p
0o
b0 m
0l
0k
0j
0i
0h
0g
0f
0e
b0 c
0b
0a
0`
0_
0^
0]
0\
0[
b0 Y
0X
0W
0V
0U
0T
0S
0R
0Q
b111 O
1N
b0 M
b0 L
b0 K
0J
b0 I
bz00000000 G
b0 F
b0 E
b0 D
b0 C
0B
b111 A
1@
b0 ?
b0 >
b0 =
b0 <
b0 ;
b0 9
b0 8
b0 7
b0 6
05
b0 4
b0 3
b0 1
b0 0
0/
0.
b0 -
b0 ,
b0 +
b0 *
b10100 )
b1010 (
b0 '
b0 &
b0 %
0$
bz0 "
b0 !
$end
#100
0N
#500
1$
#600
15
#1000
0$
b1 '
b10001001 &
b10001001 ,
b101010001010000000110 )
b1001010 %
b1001010 *
b10101000101000000100 (
#1100
05
#1500
1$
#1600
12"
14"
1/"
1)"
1*"
1%"
1}
1~
1y
1s
1t
1o
1i
1="
1j
1>"
1e
19"
b111111100 I
0r
b1000001 !
b1000001 0
1T
1_
0h
0|
0("
bz11111110 G
13"
b1000001 F
0<"
b10 w
1u
b1000001 1
b1000001 C
b1 Y
1X
b10 c
1b
1a
b10 m
1l
b10 #"
1""
b10 -"
1,"
b11 7"
16"
15"
b10 A"
1@"
1\
1p
10"
b111 O
b1000001 K
1N
b11110111 M
b1001010 L
1S
1]
1g
1{
1'"
11"
1;"
b1001010 +
b1001010 7
b1001010 D
b11110111 -
b11110111 9
b11110111 E
b1001010 <
b111 A
b10 ?
b11110111 >
b10001001 =
b1001010 ;
15
b10001001 4
b10001001 8
b1001010 3
b1001010 6
#2000
0$
b10 '
b1110 &
b1110 ,
b110110111010110101011011010001 )
b1101010 %
b1101010 *
b11011011101101011100100110111 (
#2100
b0 1
b0 C
b0 !
b0 0
0N
05
#2500
1$
#2600
0>"
09"
03"
04"
0/"
0)"
1("
b1 -"
0*"
0%"
b11100 I
b1111000 !
b1111000 0
bz0 "
0.
0T
1r
0}
1|
12"
bz00001110 G
0="
b1111000 F
0<"
b1111000 1
b1111000 C
0/
b0 Y
0X
b11 w
1v
b1 #"
0""
0,"
1+"
b1 7"
06"
b0 A"
0@"
1&"
b111 O
0J
b1111000 K
1N
b1110 M
b1101010 L
0S
1q
0{
0'"
01"
0;"
b1101010 +
b1101010 7
b1101010 D
b1110 -
b1110 9
b1110 E
b1101010 <
b111 A
b0 ?
b1110 >
b1110 =
b1101010 ;
15
b1110 4
b1110 8
b1101010 3
b1101010 6
#3000
0$
b11 '
b10111100 &
b10111100 ,
b1000100101011100010001001100001 )
b11111001 %
b11111001 *
b10111110101100010001110000001111 (
#3100
b0 !
b0 0
b0 1
b0 C
05
0N
#3500
1$
#3600
0|
bz1 "
1.
0j
b0 #"
0~
1/
0e
0y
1J
b100001000 I
b10000000 K
0_
1^
b10000000 !
b10000000 0
1T
0h
0s
b1001011 F
0("
bz10000100 G
1="
b1 c
0b
b10000000 1
b10000000 C
b1 Y
1W
b10 m
1k
b1 w
0v
0u
b0 -"
0+"
16"
05"
b10 A"
1@"
1?"
0]
0q
11"
1;"
b111 O
1N
b11000100 M
b10000111 L
1R
1f
0p
0&"
00"
1:"
b11000100 -
b11000100 9
b11000100 E
b10000111 +
b10000111 7
b10000111 D
b111 A
b11 ?
b11000100 >
b10000111 <
b10111100 =
b11111001 ;
15
b10111100 4
b10111100 8
b11111001 3
b11111001 6
#4000
0$
b100 '
b11111100 &
b11111100 ,
b11111001100100010111010010110010 )
b1001011 %
b1001011 *
b11001110010011110011101100001000 (
#4100
b0 1
b0 C
0/
b0 !
b0 0
bz0 "
0.
0N
05
#4500
1$
#4600
0|
0t
b0 #"
0~
0o
0y
b0 I
b11001111 !
b11001111 0
0i
1h
0s
1r
bz00000000 G
0="
b11001111 F
1<"
b11001111 1
b11001111 C
b1 m
0k
b1 w
1u
06"
15"
b1 A"
0?"
01"
b111 O
0J
b11001111 K
1N
b10000100 M
b1001011 L
0f
1p
10"
0:"
b10000100 -
b10000100 9
b10000100 E
b1001011 +
b1001011 7
b1001011 D
b10000100 >
b111 A
b10 ?
b1001011 <
b11111100 =
b1001011 ;
15
b11111100 4
b11111100 8
b1001011 3
b1001011 6
#5000
0$
b101 '
b1010010 &
b1010010 ,
b10110001000110010111110010010000 )
b1110011 %
b1110011 *
b1110110011110011010110101101110 (
#5100
b0 !
b0 0
b0 1
b0 C
05
0N
#5500
1$
#5600
14"
1/"
1)"
bz1 "
1.
1j
1*"
1/
1>"
1e
1%"
1J
19"
b11100100 I
0r
0("
b0 !
b0 0
1_
0^
1h
1}
bz01110010 G
13"
12"
b11000101 F
1<"
b0 w
0u
b10 -"
1+"
b0 1
b0 C
b10 c
1b
b1 m
0l
b10 #"
1""
1!"
b11 7"
16"
b1 A"
0@"
0p
1z
1&"
b111 O
b0 K
1N
b1010010 M
b1110011 L
1]
0g
1{
11"
0;"
b1110011 +
b1110011 7
b1110011 D
b1010010 -
b1010010 9
b1010010 E
b1110011 <
b111 A
b0 ?
b1010010 >
b1010010 =
b1110011 ;
15
b1010010 4
b1010010 8
b1110011 3
b1110011 6
#6000
0$
b110 '
b11010000 &
b11010000 ,
b10011001010011000000111101010111 )
b11110010 %
b11110010 *
b10111010101011000111011100011101 (
#6100
0/
bz0 "
0.
0N
05
#6500
1$
#6600
02"
0~
04"
0y
0/"
0s
0)"
1("
0<"
bz1 "
1.
0j
0t
b1 -"
0*"
0>"
1/
0e
0o
0%"
09"
b100000000 I
0_
1^
b10000000 !
b10000000 0
0T
0i
1h
1r
0}
b111110 F
1|
03"
bz10000000 G
1="
b1 c
0b
b10000000 1
b10000000 C
b0 Y
0W
b1 m
1k
b1 w
1u
b1 #"
0!"
1,"
0+"
b0 7"
06"
05"
b10 A"
1@"
1?"
0]
1'"
01"
1;"
b10000000 K
b111 O
1J
1N
b10110000 M
b10001110 L
0R
1f
1p
0z
0&"
00"
1:"
b10110000 -
b10110000 9
b10110000 E
b10001110 +
b10001110 7
b10001110 D
b111 A
b11 ?
b10110000 >
b10001110 <
b11010000 =
b11110010 ;
15
b11010000 4
b11010000 8
b11110010 3
b11110010 6
#7000
0$
b111 '
b11010100 &
b11010100 ,
b10101110000001101011001110110011 )
b1100101 %
b1100101 *
b10110101010001001101101101000001 (
#7100
b0 !
b0 0
bz0 "
0.
b0 1
b0 C
0/
05
0N
#7500
1$
#7600
1~
1>"
1y
19"
1s
0r
13"
b10 w
1t
14"
1o
1/"
b111011000 I
1i
0h
1|
b10001 !
b10001 0
1T
0^
1)"
0("
02"
bz11101100 G
1="
b10001 F
0<"
b10 m
1l
b1 #"
0""
b10001 1
b10001 C
b1 Y
1W
b0 c
0a
1v
0u
b10 -"
1+"
b10 7"
15"
b10 A"
0?"
1g
1q
0{
b111 O
0J
b10001 K
1N
b10101100 M
b1100101 L
1R
0\
0p
1&"
10"
0:"
b10101100 -
b10101100 9
b10101100 E
b1100101 +
b1100101 7
b1100101 D
b10101100 >
b111 A
b10 ?
b1100101 <
b11010100 =
b1100101 ;
15
b11010100 4
b11010100 8
b1100101 3
b1100101 6
#8000
0$
b1000 '
b1001101 &
b1001101 ,
b1100110001100001111110101100000 )
b1111010 %
b1111010 *
b10000010100001101110000000010110 (
#8100
b0 1
b0 C
b0 !
b0 0
0N
05
#8500
1$
#8600
0t
1*"
14"
0o
1%"
1/"
b11110000 I
1^
0i
1h
0r
1}
0|
b0 !
b0 0
bz1 "
1.
1)"
0("
12"
bz01111000 G
0="
b11000111 F
1<"
b1 c
1a
b1 m
0k
b10 w
1u
b10 #"
1!"
b0 1
b0 C
1/
1X
0W
b10 -"
0,"
b11 7"
16"
b1 A"
0@"
0R
1\
0f
1p
1z
b111 O
1J
b0 K
1N
b1001101 M
b1111010 L
1S
0'"
11"
0;"
b1111010 +
b1111010 7
b1111010 D
b1001101 -
b1001101 9
b1001101 E
b1111010 <
b111 A
b0 ?
b1001101 >
b1001101 =
b1111010 ;
15
b1001101 4
b1001101 8
b1111010 3
b1111010 6
#9000
0$
b1001 '
b10010111 &
b10010111 ,
b1001111011110001100010111101010 )
b10001001 %
b10001001 *
b111111011110001000111110101000 (
#9100
bz0 "
0.
0/
05
0N
#9500
1$
#9600
1t
1o
1i
0h
b10 m
1j
1*"
1e
1%"
1_
0^
1}
0|
b10 c
1`
b10 #"
1~
1[
1y
b111111110 I
1("
b11100000 !
b11100000 0
1U
0T
1s
b11100000 F
0r
bz11111111 G
1="
b11 -"
1,"
b11100000 1
b11100000 C
b10 Y
1W
0l
1k
b10 w
0u
b11 A"
1@"
1?"
0g
1'"
1;"
b11100000 K
b111 O
0J
1N
b11101001 M
b11110111 L
1R
1f
0p
1:"
b11101001 -
b11101001 9
b11101001 E
b11110111 +
b11110111 7
b11110111 D
b111 A
b11 ?
b11101001 >
b11110111 <
b10010111 =
b10001001 ;
15
b10010111 4
b10010111 8
b10001001 3
b10001001 6
#10000
0$
b1010 '
b11101100 &
b11101100 ,
b10001011101011010101111001101101 )
b111000 %
b111000 *
b10000010011111101001000110010011 (
#10100
b0 1
b0 C
b0 !
b0 0
0N
05
#10500
1$
#10600
0~
0y
0s
1r
b1 w
0t
0o
0i
1h
0="
0`
b1 m
0j
0>"
0[
0e
09"
b1100000 I
0|
0("
b11001100 !
b11001100 0
0U
0_
0^
bz00110000 G
03"
b11001100 F
1<"
b10 #"
1""
b10 -"
0,"
b11001100 1
b11001100 C
b0 Y
0X
0W
b0 c
0a
1l
0k
0v
1u
b1 7"
06"
05"
b1 A"
0?"
0S
1g
0q
1{
0'"
01"
b111 O
b11001100 K
1N
b10010100 M
b111000 L
0R
0\
0f
1p
00"
0:"
b10010100 -
b10010100 9
b10010100 E
b111000 +
b111000 7
b111000 D
b10010100 >
b111 A
b10 ?
b111000 <
b11101100 =
b111000 ;
15
b11101100 4
b11101100 8
b111000 3
b111000 6
#11000
0$
b1011 '
b1001001 &
b1001001 ,
b110000011010010011001010101 )
b1011100 %
b1011100 *
b1111110010100100000100111000011 (
#11100
b0 !
b0 0
b0 1
b0 C
05
0N
#11500
1$
#11600
02"
bz1 "
1.
04"
1~
1*"
1/
1>"
0/"
1y
1%"
1J
19"
b10110000 I
0)"
1("
b0 !
b0 0
1T
1s
0r
1}
0|
bz01011000 G
13"
b10100101 F
1<"
b1 -"
0+"
b0 1
b0 C
b1 Y
1X
0l
1k
b10 w
1v
b10 #"
0""
b10 7"
16"
15"
b1 A"
0@"
1f
0&"
10"
b111 O
b0 K
1N
b1001001 M
b1011100 L
1S
0g
1q
0{
11"
0;"
b1011100 +
b1011100 7
b1011100 D
b1001001 -
b1001001 9
b1001001 E
b1011100 <
b111 A
b0 ?
b1001001 >
b1001001 =
b1011100 ;
15
b1001001 4
b1001001 8
b1011100 3
b1011100 6
#12000
0$
b1100 '
b11101010 &
b11101010 ,
b10101001110011110000001100011110 )
b11101000 %
b11101000 *
b1011011111100111011100000110100 (
#12100
0/
bz0 "
0.
0N
05
#12500
1$
#12600
0<"
bz1 "
1.
0~
0>"
1/
0y
09"
b100100000 I
0T
1^
0s
1r
b101110 F
0|
b10000000 !
b10000000 0
03"
bz10010000 G
1="
b0 Y
0X
b1 c
1b
b1 w
0v
b10 #"
1""
b10000000 1
b10000000 C
1l
0k
b0 7"
06"
05"
b10 A"
1@"
1?"
0S
1]
1g
0q
1{
01"
1;"
b10000000 K
b111 O
1J
1N
b10010110 M
b10011000 L
0f
00"
1:"
b10010110 -
b10010110 9
b10010110 E
b10011000 +
b10011000 7
b10011000 D
b111 A
b11 ?
b10010110 >
b10011000 <
b11101010 =
b11101000 ;
15
b11101010 4
b11101010 8
b11101000 3
b11101000 6
#13000
0$
b0 '
b11001000 &
b11001000 ,
b111100 )
b10 %
b10 *
b101000 (
#13100
b0 !
b0 0
bz0 "
0.
b0 1
b0 C
0/
05
0N
#13500
1$
#13600
02"
b0 7"
04"
0*"
0/"
0%"
b0 I
0h
0)"
1("
b10111010 !
b10111010 0
0}
1|
bz00000000 G
0="
b10111010 F
1<"
b0 m
0l
b1 -"
1,"
b10111010 1
b10111010 C
0b
1a
1v
0u
b1 #"
0!"
b1 A"
0?"
0]
0g
1q
1'"
b111 O
0J
b10111010 K
1N
b10111000 M
b10 L
1\
0p
0z
0:"
b10111000 -
b10111000 9
b10111000 E
b10 +
b10 7
b10 D
b10111000 >
b111 A
b10 ?
b10 <
b11001000 =
b10 ;
15
b11001000 4
b11001000 8
b10 3
b10 6
#14000
0$
b1 '
b10000011 &
b10000011 ,
b1111110011110000001110 )
b110 %
b110 *
b1010100010100000001010 (
#14100
b0 1
b0 C
b0 !
b0 0
0N
05
#14500
1$
#14600
1="
0<"
b10 A"
1>"
19"
13"
14"
1/"
1)"
0("
b10 -"
1*"
1%"
1}
0|
b10 #"
1~
1y
1s
0r
b10 w
1t
1o
b111111000 I
b11 K
1T
b11 F
02"
b11 !
b11 0
bz11111100 G
1i
b1 Y
1X
b10 7"
16"
b11 1
b11 C
b10 m
1l
1k
1S
1g
11"
b111 O
1N
b11111101 M
b110 L
1f
b11111101 -
b11111101 9
b11111101 E
b110 +
b110 7
b110 D
b10 ?
b11111101 >
b110 <
b111 A
b10000011 =
b110 ;
15
b10000011 4
b10000011 8
b110 3
b110 6
#15000
0$
b10 '
b111 &
b111 ,
b10100100101111011100110100111001 )
b1010100 %
b1010100 *
b1101101110101001001001000000101 (
#15100
b0 !
b0 0
b0 1
b0 C
05
0N
#15500
1$
#15600
0*"
0>"
0%"
09"
0}
1|
03"
12"
b1 #"
0~
b1 7"
04"
0y
0/"
b1000 I
b1011011 !
b1011011 0
bz0 "
0.
0s
1r
0)"
0("
bz00000100 G
0="
b1011011 F
0<"
b1011011 1
b1011011 C
0/
1b
0a
b1 w
0v
0""
1!"
b0 -"
0,"
06"
15"
b0 A"
0@"
0\
1z
10"
b111 O
0J
b1011011 K
1N
b111 M
b1010100 L
1]
0q
0{
0'"
01"
0;"
b1010100 +
b1010100 7
b1010100 D
b111 -
b111 9
b111 E
b1010100 <
b111 A
b0 ?
b111 >
b111 =
b1010100 ;
15
b111 4
b111 8
b1010100 3
b1010100 6
#16000
0$
b11 '
b10101110 &
b10101110 ,
b1011100101000100011101110101001 )
b10110101 %
b10110101 *
b1010000101010000010111100000101 (
#16100
b0 1
b0 C
b0 !
b0 0
0N
05
#16500
1$
#16600
0("
b0 -"
0*"
0%"
1<"
1h
0}
1|
1>"
1j
0t
b1 #"
0~
19"
1e
0o
0y
b110000100 I
b10011101 K
13"
02"
b10011101 !
b10011101 0
1_
0^
0i
0s
b10011101 F
1r
bz11000010 G
1="
b10 7"
16"
b10011101 1
b10011101 C
0X
1W
b10 c
1a
b1 m
0l
0k
b1 w
1u
1""
0!"
b11 A"
1@"
1?"
0S
0g
1{
11"
1;"
b111 O
1N
b11010010 M
b11001011 L
1R
1\
0f
1p
0z
1:"
b11010010 -
b11010010 9
b11010010 E
b11001011 +
b11001011 7
b11001011 D
b111 A
b11 ?
b11010010 >
b11001011 <
b10101110 =
b10110101 ;
15
b10101110 4
b10101110 8
b10110101 3
b10110101 6
#17000
0$
b100 '
b10101000 &
b10101000 ,
b10100110100110100101101101011010 )
b1011010 %
b1011010 *
b1010000000101011110100000000110 (
#17100
b0 !
b0 0
b0 1
b0 C
05
0N
#17500
1$
#17600
0h
1("
b0 m
0j
1~
b1 -"
1*"
0e
1y
1%"
b110110000 I
0_
1^
1s
0r
b110010 !
b110010 0
0T
bz11011000 G
1}
1|
b110010 F
0<"
b1 c
0b
b10 w
1v
b110010 1
b110010 C
b0 Y
0W
b11 #"
1!"
b10 A"
0?"
0]
1q
b111 O
b110010 K
1N
b11011000 M
b1011010 L
0R
1z
0:"
b11011000 -
b11011000 9
b11011000 E
b1011010 +
b1011010 7
b1011010 D
b11011000 >
b111 A
b10 ?
b1011010 <
b10101000 =
b1011010 ;
15
b10101000 4
b10101000 8
b1011010 3
b1011010 6
#18000
0$
b101 '
b1101110 &
b1101110 ,
b10011011100110001011100100011000 )
b100110 %
b100110 *
b100110010110010001101011010100 (
#18100
b0 1
b0 C
b0 !
b0 0
0N
05
#18500
1$
#18600
1|
1h
0("
1~
1>"
1j
1t
0*"
14"
1y
19"
1e
1o
0%"
1/"
b11011100 I
1s
0r
13"
02"
b0 !
b0 0
bz1 "
1.
1_
0^
1i
0}
1)"
bz01101110 G
0="
b10010100 F
1<"
b10 w
0u
b10 7"
05"
b0 1
b0 C
1/
b10 c
1b
b11 m
1l
1k
b1 #"
0""
0!"
b10 -"
1,"
1+"
b1 A"
0@"
1f
0p
0z
1&"
00"
b111 O
1J
b0 K
1N
b1101110 M
b100110 L
1]
1g
0{
1'"
0;"
b100110 +
b100110 7
b100110 D
b1101110 -
b1101110 9
b1101110 E
b100110 <
b111 A
b0 ?
b1101110 >
b1101110 =
b100110 ;
15
b1101110 4
b1101110 8
b100110 3
b100110 6
#19000
0$
b110 '
b11011100 &
b11011100 ,
b10011110010100111000000111111 )
b10011101 %
b10011101 *
b1010110100010110011111111001011 (
#19100
bz0 "
0.
0/
05
0N
#19500
1$
#19600
0t
0o
0i
0|
0j
b0 #"
0~
0e
0y
b111000000 I
0_
1^
0s
0r
b10000111 !
b10000111 0
1T
b10000111 F
1h
bz11100000 G
1="
b1 c
0b
b0 w
0v
b10000111 1
b10000111 C
b1 Y
1W
b1 m
0k
06"
15"
b11 A"
1@"
1?"
0]
0q
01"
1;"
b10000111 K
b111 O
0J
1N
b10100100 M
b11100011 L
1R
0f
10"
1:"
b10100100 -
b10100100 9
b10100100 E
b11100011 +
b11100011 7
b11100011 D
b111 A
b11 ?
b10100100 >
b11100011 <
b11011100 =
b10011101 ;
15
b11011100 4
b11011100 8
b10011101 3
b10011101 6
#20000
0$
b111 '
b10010010 &
b10010010 ,
b10010001000011100001010101111011 )
b110101 %
b110101 *
b10011111100010100110010010010111 (
#20100
b0 1
b0 C
b0 !
b0 0
0N
05
#20500
1$
#20600
1("
b11 -"
1*"
1%"
1}
1~
1y
1s
1t
1o
b111111000 I
0r
b100011 !
b100011 0
bz11111100 G
1i
0h
0|
b100011 F
0<"
b10 w
1v
b100011 1
b100011 C
1b
0a
b10 m
1k
b10 #"
1!"
16"
05"
b10 A"
0?"
1]
1q
11"
b111 O
b100011 K
1N
b11101110 M
b110101 L
0\
1f
1z
00"
0:"
b11101110 -
b11101110 9
b11101110 E
b110101 +
b110101 7
b110101 D
b11101110 >
b111 A
b10 ?
b110101 <
b10010010 =
b110101 ;
15
b10010010 4
b10010010 8
b110101 3
b110101 6
#21000
0$
b1000 '
b1101000 &
b1101000 ,
b11110100110110010111001010001000 )
b1010111 %
b1010111 *
b101101100001010011011111110100 (
#21100
b0 !
b0 0
b0 1
b0 C
05
0N
#21500
1$
#21600
04"
0/"
0)"
0*"
0%"
0}
1|
b1 #"
0~
0y
0s
1r
b1 w
0t
0o
b10000000 I
1("
02"
b0 !
b0 0
bz1 "
1.
0i
1h
bz01000000 G
0="
b10111111 F
1<"
b1 -"
0+"
b10 7"
15"
b0 1
b0 C
1/
0b
1a
b1 m
0l
b1 A"
0@"
1\
0&"
10"
b111 O
1J
b0 K
1N
b1101000 M
b1010111 L
0]
0g
0;"
b1010111 +
b1010111 7
b1010111 D
b1101000 -
b1101000 9
b1101000 E
b1010111 <
b111 A
b0 ?
b1101000 >
b1101000 =
b1010111 ;
15
b1101000 4
b1101000 8
b1010111 3
b1010111 6
#22000
0$
b1001 '
b11000011 &
b11000011 ,
b10001111011110011001111011110010 )
b10110111 %
b10110111 *
b1101111011110010011001001101110 (
#22100
0/
bz0 "
0.
0N
05
#22500
1$
#22600
14"
1/"
1)"
0("
b10 -"
1*"
1%"
1<"
1}
0|
bz0 "
0.
1`
1>"
b10 #"
1~
0/
1[
19"
1y
b111110010 I
1U
0T
13"
02"
b10000110 !
b10000110 0
1^
1s
b10000110 F
0r
bz11111001 G
1="
b10 Y
1X
b10 7"
06"
b10000110 1
b10000110 C
b1 c
0a
1l
0k
b10 w
1u
1""
0!"
b11 A"
1@"
1?"
1S
1g
1{
01"
1;"
b10000110 K
b111 O
0J
1N
b10111101 M
b11001001 L
0\
0f
1p
0z
1:"
b10111101 -
b10111101 9
b10111101 E
b11001001 +
b11001001 7
b11001001 D
b111 A
b11 ?
b10111101 >
b11001001 <
b11000011 =
b10110111 ;
15
b11000011 4
b11000011 8
b10110111 3
b10110111 6
#23000
0$
b1010 '
b10101111 &
b10101111 ,
b10110000011010001001000111010101 )
b1010000 %
b1010000 *
b10011110000010101111100000100001 (
#23100
b0 !
b0 0
b0 1
b0 C
05
0N
#23500
1$
#23600
0^
04"
b0 c
0`
0~
0/"
0[
0y
b110100000 I
0h
0)"
1("
02"
b100001 !
b100001 0
0U
1T
bz11010000 G
0s
0|
b100001 F
0<"
b0 m
0l
b1 -"
0,"
b10 7"
16"
b100001 1
b100001 C
b1 Y
0W
b0 w
0v
0u
b10 #"
1!"
b10 A"
0?"
0g
0q
0'"
11"
b111 O
b100001 K
1N
b11010001 M
b1010000 L
0R
0p
1z
0:"
b11010001 -
b11010001 9
b11010001 E
b1010000 +
b1010000 7
b1010000 D
b11010001 >
b111 A
b10 ?
b1010000 <
b10101111 =
b1010000 ;
15
b10101111 4
b10101111 8
b1010000 3
b1010000 6
#24000
0$
b1011 '
b10110 &
b10110 ,
b100100111110011001100010011101 )
b101110 %
b101110 *
b10101100000110101111101111001 (
#24100
b0 1
b0 C
b0 !
b0 0
0N
05
#24500
1$
#24600
1~
1y
12"
1h
1s
1*"
14"
1j
1t
0>"
1%"
1/"
1e
1o
09"
b1111100 I
0r
1}
0|
1)"
0("
b1000100 !
b1000100 0
bz0 "
0.
0T
1_
1i
03"
bz00111110 G
0="
b1000100 F
0<"
b10 w
1u
b10 #"
0!"
b10 -"
1+"
b1000100 1
b1000100 C
0/
b0 Y
0X
b10 c
1b
1a
b11 m
1l
1k
b1 7"
06"
05"
b0 A"
0@"
1\
1f
1p
0z
1&"
00"
b111 O
0J
b1000100 K
1N
b10110 M
b101110 L
0S
1]
1g
01"
0;"
b101110 +
b101110 7
b101110 D
b10110 -
b10110 9
b10110 E
b101110 <
b111 A
b0 ?
b10110 >
b10110 =
b101110 ;
15
b10110 4
b10110 8
b101110 3
b101110 6
#25000
0$
b1100 '
b10100110 &
b10100110 ,
b11100001001111000010111011000110 )
b10001111 %
b10001111 *
b1000101100001011001100011110010 (
#25100
b0 !
b0 0
b0 1
b0 C
05
0N
#25500
1$
#25600
0~
0y
0h
0s
1r
1<"
0j
b1 w
0t
1>"
0e
0o
19"
b111100000 I
b11001011 K
b11001011 !
b11001011 0
1T
0_
1^
0i
b11001011 F
0|
13"
bz11110000 G
1="
b11001011 1
b11001011 C
b1 Y
1W
b1 c
0a
b0 m
0l
0k
1v
0u
b10 #"
1!"
b11 7"
16"
15"
b11 A"
1@"
1?"
0g
1q
11"
1;"
b111 O
1N
b11011010 M
b11110001 L
1R
0\
0f
0p
1z
10"
1:"
b11011010 -
b11011010 9
b11011010 E
b11110001 +
b11110001 7
b11110001 D
b111 A
b11 ?
b11011010 >
b11110001 <
b10100110 =
b10001111 ;
15
b10100110 4
b10100110 8
b10001111 3
b10001111 6
#26000
0$
b1101 '
b11110000 &
b11110000 ,
b10011010010101111000001010001111 )
b1100000 %
b1100000 *
b1101101100011100001111001011 (
#26100
b0 1
b0 C
b0 !
b0 0
0N
05
#26500
1$
